{
  "configuration" : {
    "dbconfig" : {
      "host" : "localhost",
      "port" : 3000,
      "dbname" : "test",
      "fullURI" : "mongodb://localhost:27017/test"
    },
    "log" : true,
    "errors" : true


  }
}